toffster96 0 0 3570
badlad1990 0 0 130
haleyverse 0 0 750
kingzercyhd 0 0 0
magicflyingpiggy 0 0 1690
vone_ex 0 0 3460
kattcha 0 0 3550
luggagebot 0 0 3470
nightbot 0 0 3550
r0w3n 0 0 2470
luna_star_dust 0 0 560
kittys_chair 0 0 960
eyelessjackx 0 0 0
natalierose14 0 0 130
dinuity 0 0 10
black_knight_18 0 0 120
derpproduction 0 0 0
jossep93 0 0 1930
aktivertommy 0 0 0
ghilliesuitedgrizzlybear 0 0 60
wiccanwarriorxd 0 0 850
mgedis 0 0 0
dembarbi 0 0 430
simonje 0 0 1420
mrdanielox 0 0 0
mckoon77 0 0 0
mocfunky 0 0 0
elitegreavesy 0 0 0
nino376 0 0 480
liztheomniscient 0 0 780
gloomdoomandboom 0 0 0
xkdoesminecraft 0 0 90
milan_plasmaswordx 0 0 360
mokyi 0 0 0
to3e 0 0 1130
ivovoi004 0 0 0
severnandwonks 0 0 500
order_agony 0 0 0
dragonknight4222 0 0 140
mercenaryburrito 0 0 0
conundrums 0 0 0
uhavereturned66 0 0 0
chefbotcam 0 0 0
jugane 0 0 0
silaqui_greyhawke 0 0 1310
jobrominerman 0 0 60
chaztech 0 0 1740
iwuvpuppies19 0 0 0
steamboi344 0 0 0
pokox2000 0 0 120
kalliossx 0 0 450
bossmodegamer 0 0 60
jerremy1997 0 0 60
kenzithezombie 0 0 280
vzs_tv 0 0 0
lavendercourage 0 0 720
tomwild1995 0 0 510
justkrooked 0 0 60
playcrazypete 0 0 1660
dccool 0 0 130
pray_for_kattcha 0 0 60
dpunish 0 0 0
koenig_jonas 0 0 0
oakenstein1011 0 0 360
minig2202 0 0 30
lathenmckinney2 0 0 500
acarulli03 0 0 0
xxazzleticxx 0 0 90
coopapei 0 0 0
fuzzypiez 0 0 0
vinc3ntvega 0 0 300
gamerzforeverre142 0 0 0
emiilp 0 0 10
sir_bananers 0 0 420
livelordxx 0 0 0
twiztedskillz1 0 0 10
ttgimp 0 0 1790
chinbullog 0 0 2230
dog_crazyz13 0 0 20
creativekittenofficial 0 0 1210
1kftabove 0 0 450
jacked_bill_official 0 0 210
jb_warsmith 0 0 2650
bone_2013 0 0 170
kadock24 0 0 160
nclcliam 0 0 160
ayykekmao 0 0 0
snax0r 0 0 500
xxthefxgamingxx 0 0 160
dindonpoilu2 0 0 0
gtredwolf 0 0 330
allrightitselu 0 0 150
lamerguez_2727 0 0 150
iitzz_riisky 0 0 150
teamtigerlol 0 0 0
drunkninjarabbit 0 0 580
kamicomplex 0 0 0
greenrivvver 0 0 0
tntank98 0 0 20
kmacc578 0 0 0
christof14 0 0 800
j2wavy 0 0 30
siriusblack9 0 0 60
bloodangel1500 0 0 50
scarstarr 0 0 10
twitchalerts 0 0 40
rikashi151 0 0 370
enchantedgaming01 0 0 10
mintynguyen2 0 0 50
sirsmallsnake 0 0 10
lerazedu59 0 0 0
silverdigger123 0 0 20
laurelle1 0 0 0
nutela3 0 0 0
twgs 0 0 40
legiasestenceinte 0 0 10
clairvoyants 0 0 0
shacinaz 0 0 10
cclark6700 0 0 20
qnkatawe123 0 0 0
shonlysho 0 0 20
misia19042002 0 0 0
callie2468 0 0 10
hugtand01 0 0 10
combatkiller6902 0 0 10
pjevica 0 0 400
xxpropinkzzxx8 0 0 10
imurdemize 0 0 40
harrietmay30 0 0 0
ryanrazz01 0 0 0
shrecktya 0 0 20
silvericemagus 0 0 50
jbosley123 0 0 0
jerry50th 0 0 100
epicgamer5751 0 0 0
shaun_spawn 0 0 0
dixie_boy 0 0 30
oopsied 0 0 10
shanejohn1239 0 0 10
sinan401 0 0 0
inglouriousfyc 0 0 10
spookypants5751 0 0 80
driftingaz 0 0 10
robertm02 0 0 0
onkelrexy 0 0 0
jadenlovetea 0 0 0
d0piasugar 0 0 0
candyman3597 0 0 0
zzgirl 0 0 100
blackcuriosity 0 0 360
xerxk 0 0 80
daveravemate 0 0 0
420_nurdz 0 0 0
biglgoeslarge 0 0 0
ih8kneegars_ 0 0 10
teddykiller27 0 0 0
frozengecko 0 0 0
smadger 0 0 0
callummcc 0 0 10
tr34days 0 0 0
goforthedew 0 0 0
fxckitzmegan2002 0 0 0
badrambo57 0 0 0
luiscrafter_hd 0 0 0
catfish_loves_pineapples 0 0 10
ekkiejj 0 0 30
kingdomkon 0 0 0
sparrow714 0 0 70
abielg98 0 0 10
rappana 0 0 30
lemonpenguin266 0 0 10
miauuuuufabi 0 0 800
itz_richy 0 0 10
blameme4urloss_ftw 0 0 10
devexer 0 0 1380
xrandyxpigeonx 0 0 40
makadam36 0 0 0
gay_ping_hole 0 0 0
forktis 0 0 190
itsqtothet 0 0 10
xxmatentv123xx12 0 0 40
eyeoftack 0 0 20
zan_xu 0 0 10
sdbasterash1 0 0 10
beamisthebest 0 0 0
laugenbrezn 0 0 370
philomentus 0 0 170
phoniix_snipes 0 0 0
vasile1982 0 0 190
godschild_oc 0 0 360
gamecafe123 0 0 10
ytspenttitan34 0 0 160
kraehenprinz 0 0 10
windsten 0 0 0
gamerz221gaming 0 0 160
esyliumlegend 0 0 10
edlenel 0 0 0
xxgamerfailxx 0 0 10
fiftywalrus 0 0 0
adamletego 0 0 0
nlskull1989 0 0 0
jewpies101 0 0 0
wolfeliviki 0 0 80
audreyhearing 0 0 0
gamerquiz12 0 0 0
brycethewhitekid 0 0 0
breakbotsboy 0 0 290
haileyyjordan 0 0 10
siflux_edm 0 0 150
jammie122 0 0 10
niyah_simone 0 0 10
the3dthug 0 0 1250
fadey_ 0 0 20
almightychinchin_420 0 0 0
pilluminati666 0 0 0
firekans12 0 0 0
frostless26 0 0 0
thelonius_solo 0 0 10
nufcdazz 0 0 180
xkillzgamingchannel 0 0 10
tylah_11 0 0 0
shaze96 0 0 10
kitkatti 0 0 10
hyperdunker6909 0 0 0
gopher_guy 0 0 0
alexanjms 0 0 0
pepsi_girl467 0 0 0
staubi98 0 0 10
jfrizz614 0 0 20
bootysweat_79 0 0 10
makorra_nation 0 0 0
atenyearold 0 0 10
evershedjamie 0 0 0
mixu94 0 0 0
lawmarshall 0 0 0
twitchtweeter 0 0 10
iloveteadusbluetv 0 0 0
axillaryglint13 0 0 0
mieuzx 0 0 30
callmescoopjr 0 0 0
signisndk 0 0 0
djswagg593 0 0 0
maoplays 0 0 0
itzbuilder 0 0 20
arska13 0 0 0
celestialpen15 0 0 0
medallion95 0 0 410
pregi01 0 0 10
bypass415 0 0 0
jackscheeese 0 0 0
sgtwulfey 0 0 10
creepamc 0 0 10
dkia 0 0 10
lightning_spark_strikes 0 0 20
lemonademakeryt 0 0 10
creativecarbine 0 0 0
smerti13 0 0 0
temperz_xhd 0 0 240
gattemal 0 0 0
soccergirls4ever 0 0 240
isak_rd 0 0 140
j_for_joe 0 0 0
guilvmrd 0 0 0
jdog_delish 0 0 0
21matthew21_ 0 0 10
cloudz_camz 0 0 50
mad_hatter_of_wonderland 0 0 50
tweepz226 0 0 0
caillie_jenkins 0 0 0
basser100 0 0 0
bo0tzz 0 0 0
ecolt03 0 0 0
yeranna 0 0 0
danger__bot 0 0 0
russdornisch 0 0 0
reecelav1111 0 0 0
anne_frank_did_911 0 0 0
mrkorvic 0 0 480
nathcode 0 0 10
apexviperm16 0 0 10
calbeee_123 0 0 0
justout555 0 0 200
bluntnate 0 0 10
flaffy7 0 0 10
ellie__crombie__soccer 0 0 0
panoferkiller 0 0 10
dylanrobertson1690 0 0 0
keg29 0 0 10
meaniegreenie 0 0 0
meloncraftthemelon 0 0 10
not_a_troll666 0 0 10
d33z___nuutz 0 0 10
p1ayer_0ne_ 0 0 110
twixxled 0 0 0
tim9868 0 0 110
hellbound6 0 0 0
zitronennuss 0 0 0
janko_3 0 0 0
victor3dgamar 0 0 0
djolejagodinac 0 0 0
egraceminer 0 0 0
caal2352 0 0 10
fuatirfan 0 0 0
karlovinsky 0 0 0
blastzeromatik 0 0 0
nuckantv 0 0 0
veverica12 0 0 140
jeffro_1615 0 0 0
treetreaty 0 0 80
minipopsy 0 0 0
notety 0 0 0
soccer_bacca 0 0 70
vexomia 0 0 10
bulletshot911 0 0 10
king_panda38 0 0 10
dhwt 0 0 10
raewen 0 0 0
freakyspace 0 0 300
arcuros 0 0 0
randiftw 0 0 340
sephre87 0 0 90
mrmiami55 0 0 180
eduardomartinez49 0 0 0
minecraft_4life_ftw 0 0 10
ferdgard 0 0 0
thatweedwtfdude 0 0 200
theninobros1 0 0 0
pekka89 0 0 10
jamesm2121 0 0 10
oorichtigeroo 0 0 20
nano4life09 0 0 0
obviousboulder 0 0 0
bailey_0425 0 0 0
noiziaqt 0 0 10
yaboiirookie 0 0 0
jordcreations 0 0 60
ratherhorny 0 0 0
autistic_dan_from_buffalo 0 0 0
kingen0330 0 0 20
acid1sttrip 0 0 10
buler4949 0 0 10
stylesmetalhead 0 0 10
calinessley 0 0 70
acecc413 0 0 10
funky_one 0 0 0
adnurak 0 0 0
fallendiscrete 0 0 0
kingme_squirrels 0 0 0
gremlinda 0 0 0
fred_zed_ded 0 0 10
iilucyy 0 0 20
evelyn_honey 0 0 50
gazathebanana 0 0 10
ikilledtherainbow 0 0 60
dayolight 0 0 20
dakirn 0 0 40
danvilltv 0 0 10
therealchazfaz 0 0 0
faithdeer13 0 0 20
reddzter 0 0 40
gensothesixth 0 0 10
hurri04 0 0 30
traxiii 0 0 10
oceanicair 0 0 30
redfight2000 0 0 10
blabelbutcher 0 0 0
flowperc 0 0 10
king_of_cool 0 0 0
jackminec 0 0 60
kurozaki225 0 0 0
sljackson87 0 0 0
srmelon 0 0 70
grand_poobear 0 0 50
ryanf1193 0 0 210
axel230999 0 0 10
xziirx4kiings 0 0 20
olivermc2001 0 0 0
thatguywhojustwantsaname 0 0 20
liammccarron 0 0 10
mmimacek 0 0 10
bamkam31 0 0 0
camper2b 0 0 0
almlascookie 0 0 0
andres12elgamer 0 0 0
nighthawk2091 0 0 10
nikegetmoremoney 0 0 0
vb_queen 0 0 0
colognefightclub 0 0 0
radicalllx 0 0 0
dirtyoldcoot 0 0 20
swayz_asassin 0 0 0
rddoll2 0 0 0
limitedcactus46 0 0 280
itsjimjams 0 0 0
yolocalskateer 0 0 10
gamerpup229coolguy 0 0 20
xx47y_xx 0 0 20
nb11dokkk 0 0 10
bewarethedreads 0 0 0
amanda0913 0 0 0
rugdobe 0 0 10
flash201015 0 0 0
dillon69x 0 0 0
tremert2 0 0 190
forgedspecs 0 0 0
hydra94 0 0 160
piggiethepigg 0 0 60
spongebooob_squarediick 0 0 0
endertwinz 0 0 0
kari_7619 0 0 0
cgl2019 0 0 0
radioactivelava1 0 0 0
stumpyone 0 0 320
hunter2440 0 0 0
mody8569 0 0 0
biggin482 0 0 0
peacheyftw_ 0 0 0
attana 0 0 10
richieee_19 0 0 0
pink_teax 0 0 20
always_want_to_sleep 0 0 190
xanaxtr 0 0 10
biorockmanx 0 0 260
patwaii 0 0 0
xmasjoseph123 0 0 10
neon_22 0 0 60
situpc 0 0 100
bluster123 0 0 0
nopz1 0 0 0
thelongrod 0 0 0
beanbee 0 0 10
thesouthiepanda01 0 0 0
patrykid123 0 0 10
dlfk 0 0 20
dichetdi 0 0 40
bml_atkinson 0 0 40
palabala 0 0 10
omegabuzz 0 0 0
luna_crystal 0 0 10
blondinestudio 0 0 0
vesper117 0 0 0
jamesjames880 0 0 10
zn0wman 0 0 0
